%YAML 1.1
%TAG !u! tag:unity3d.com,2011:
--- !u!114 &11400000
MonoBehaviour:
  m_ObjectHideFlags: 0
  m_CorrespondingSourceObject: {fileID: 0}
  m_PrefabInstance: {fileID: 0}
  m_PrefabAsset: {fileID: 0}
  m_GameObject: {fileID: 0}
  m_Enabled: 1
  m_EditorHideFlags: 0
  m_Script: {fileID: 11500000, guid: 541cda6184b926b4eb9d9ff94ced4bc4, type: 3}
  m_Name: StatusData
  m_EditorClassIdentifier: 
  charaStatus01: 0100000027000000f8ffffff2200000013000000
  charaStatus02: 000000000b000000fbffffff070000000a000000
